[
	{
		"avatar": "https://api.adorable.io/avatar/nordiccoder",
		"firstName": "Nordic",
		"lastName": "Coder",
		"dob": "1990-12-10T13:06:35.216Z",
		"gender": "male",
		"country": "vietnam",
		"phoneNumber": "12345678",
		"zipcode": "700000",
		"username": "admin",
		"email": "admin@nordiccoder.com",
		"emailVerified": true,
		"role": "admin"
	},
	{
		"avatar": "https://api.adorable.io/avatar/ltt",
		"firstName": "Tường",
		"lastName": "Lâm Thiên",
		"dob": "1990-12-10T13:06:35.216Z",
		"gender": "male",
		"country": "vietnam",
		"phoneNumber": "12345678",
		"zipcode": "700000",
		"username": "thientuong",
		"email": "tuong.lam@nordiccoder.com",
		"emailVerified": true,
		"role": "user"
	},

	{
		"avatar": "https://api.adorable.io/avatar/tvda",
		"firstName": "Anh",
		"lastName": "Từ Vũ Đức",
		"dob": "1990-12-10T13:06:35.216Z",
		"gender": "male",
		"country": "vietnam",
		"phoneNumber": "12345678",
		"zipcode": "700000",
		"username": "ducanh",
		"email": "anh.tu@nordiccoder.com",
		"emailVerified": true,
		"role": "user"
	},
	{
		"avatar": "https://api.adorable.io/avatar/nnt",
		"firstName": "Tiến",
		"lastName": "Nguyễn Như",
		"dob": "1990-12-10T13:06:35.216Z",
		"gender": "male",
		"country": "vietnam",
		"phoneNumber": "12345678",
		"zipcode": "700000",
		"username": "nhutien",
		"email": "tien.nguyen@nordiccoder.com",
		"emailVerified": true,
		"role": "user"
	},
	{
		"avatar": "https://api.adorable.io/avatar/caq",
		"firstName": "Quốc",
		"lastName": "Cao Anh",
		"dob": "1990-12-10T13:06:35.216Z",
		"gender": "male",
		"country": "vietnam",
		"phoneNumber": "12345678",
		"zipcode": "700000",
		"username": "anhquoc",
		"email": "quoc.cao@nordiccoder.com",
		"emailVerified": true,
		"role": "user"
	},
	{
		"avatar": "https://api.adorable.io/avatar/ltnh",
		"firstName": "Hân",
		"lastName": "Lê Thụy Ngọc",
		"dob": "1989-14-02T13:06:35.216Z",
		"gender": "female",
		"country": "vietnam",
		"phoneNumber": "12345678",
		"zipcode": "700000",
		"username": "hanle",
		"email": "han.le@nordiccoder.com",
		"emailVerified": true,
		"role": "moderator"
	},
	{
		"avatar": "https://api.adorable.io/avatar/pn",
		"firstName": "Phương",
		"lastName": "Nguyễn",
		"dob": "1994-20-10T13:06:35.216Z",
		"gender": "female",
		"country": "vietnam",
		"phoneNumber": "12345678",
		"zipcode": "700000",
		"username": "phuongnguyen",
		"email": "phuong.nguyen@nordiccoder.com",
		"emailVerified": true,
		"role": "moderator"
	}
]
